Reddit_Sentiment_Analysis
…
Sentiment Analysis

get_sentiments("nrc")

## # A tibble: 13,901 x 2
##    word        sentiment
##    <chr>       <chr>    
##  1 abacus      trust    
##  2 abandon     fear     
##  3 abandon     negative 
##  4 abandon     sadness  
##  5 abandoned   anger    
##  6 abandoned   fear     
##  7 abandoned   negative 
##  8 abandoned   sadness  
##  9 abandonment anger    
## 10 abandonment fear     
## # ... with 13,891 more rows

get_sentiments("afinn")

## # A tibble: 2,477 x 2
##    word       value
##    <chr>      <dbl>
##  1 abandon       -2
##  2 abandoned     -2
##  3 abandons      -2
##  4 abducted      -2
##  5 abduction     -2
##  6 abductions    -2
##  7 abhor         -3
##  8 abhorred      -3
##  9 abhorrent     -3
## 10 abhors        -3
## # ... with 2,467 more rows
…
lda8_betas <- broom::tidy(lda8)
lda8_betas

## # A tibble: 44,872 x 3
##    topic term            beta
##    <int> <chr>          <dbl>
##  1     1 https       3.17e-10
##  2     2 https       2.90e-27
##  3     3 https       3.17e- 2
##  4     4 https       5.13e-29
##  5     5 https       1.00e-16
##  6     6 https       2.17e- 2
##  7     7 https       9.56e-17
##  8     8 https       3.81e-18
##  9     1 reinfection 8.12e-28
## 10     2 reinfection 5.56e-38
## # ... with 44,862 more rows
…
